MD5
…
Above is a graph that compares log_followers and residuals. This shows the distance from each data points to the linear model. Most of our residuals are centered around 0 meaning that there is little fluctuation. There are some outliers notably the points above 1.5 and below -1.0. These large residuals do not happen that often so our linear model is a good fit for the data and can predict average viewers for the range of our followers.

Question 4

langauge <- twitch_data |>
  select(channel, language, average_viewers)
langauge

# A tibble: 1,000 × 3
   channel    language   average_viewers
   <chr>      <chr>                <dbl>
 1 xQcOW      English              27716
 2 summit1g   English              25610
 3 Gaules     Portuguese           10976
 4 ESL_CSGO   English               7714
 5 Tfue       English              29602
 6 Asmongold  English              42414
 7 NICKMERCS  English              24181
 8 Fextralife English              18985
 9 loltyler1  English              22381
10 Anomaly    English              12377
# ℹ 990 more rows
…
This graph shows the number of twitch channels by language. English streamers are clearly more common compared to non-English streamers.

Now lets create a data set for English and non-English streamers.

english <- langauge |>
  filter(language == "English")
english

# A tibble: 485 × 3
   channel      language average_viewers
   <chr>        <chr>              <dbl>
 1 xQcOW        English            27716
 2 summit1g     English            25610
 3 ESL_CSGO     English             7714
 4 Tfue         English            29602
 5 Asmongold    English            42414
 6 NICKMERCS    English            24181
 7 Fextralife   English            18985
 8 loltyler1    English            22381
 9 Anomaly      English            12377
10 TimTheTatman English            25664
# ℹ 475 more rows
summary(english)

   channel            language         average_viewers 
 Length:485         Length:485         Min.   :   235  
 Class :character   Class :character   1st Qu.:  1458  
 Mode  :character   Mode  :character   Median :  2483  
                                       Mean   :  5113  
                                       3rd Qu.:  5001  
                                       Max.   :147643  

non_english <- langauge |>
  filter(language != "English")
non_english

# A tibble: 515 × 3
   channel               language   average_viewers
   <chr>                 <chr>                <dbl>
 1 Gaules                Portuguese           10976
 2 Rubius                Spanish              42948
 3 auronplay             Spanish              53986
 4 MontanaBlack88        German               33514
 5 풍월량 (hanryang1125) Korean               12201
 6 alanzoka              Portuguese           19560
 7 LCK_Korea             Korean               39848
 8 TheRealKnossi         German               24595
 9 TheGrefg              Spanish              28887
10 YoDa                  Portuguese           12868
# ℹ 505 more rows
…
This graph compares the distributions of average viewers for each language. English has the most streamers and has the greatest range of viewership across the streamers. Most languages have an average viewership of 12500. Russian and English have a clear outlier. These outliers actually happen to be the same streamers but in different languages.

Question 5

langauge <- twitch_data %>% 
  mutate(language = as.factor(language), 
         language = relevel(language, ref = "English"))

fit_lang <- lm(average_viewers ~ language,
           data = langauge)

broom::tidy(fit_lang)

# A tibble: 21 × 5
   term              estimate std.error statistic  p.value
   <chr>                <dbl>     <dbl>     <dbl>    <dbl>
 1 (Intercept)          5113.      385.    13.3   3.47e-37
 2 languageArabic        569.     3808.     0.150 8.81e- 1
 3 languageChinese     -1688.     1594.    -1.06  2.90e- 1
 4 languageCzech       -3285.     3480.    -0.944 3.45e- 1
 5 languageFinnish     -4086.     8480.    -0.482 6.30e- 1
 6 languageFrench      -1606.     1111.    -1.45  1.49e- 1
 7 languageGerman       -835.     1270.    -0.657 5.11e- 1
 8 languageGreek       -3152.     8480.    -0.372 7.10e- 1
 9 languageHungarian   -2972.     6002.    -0.495 6.21e- 1
10 languageItalian     -2907.     2090.    -1.39  1.65e- 1
# ℹ 11 more rows
…
